{"status": "ok", "total_hits": 10000, "page": 1, "total_pages": 10000, "page_size": 1, "articles": [{"title": "Bank Of America CFO Says Big Two Drivers In The Quarter Will Be The Markets And Trading", "author": "Reuters", "published_date": "2023-09-11 19:23:16", "published_date_precision": "full", "link": "https://www.marketscreener.com/quote/stock/BANK-OF-AMERICA-CORPORATI-11751/news/Bank-Of-America-CFO-Says-Big-Two-Drivers-In-The-Quarter-Will-Be-The-Markets-And-Trading-44816670/", "clean_url": "marketscreener.com", "excerpt": "Bank of America Corp: * BANK OF AMERICA PRESIDENT REGIONAL BANKING ATHANASIA SAYS ON COMMERCIAL SIDE, WE'VE ADDED OVER 1100 NEW CLIENTS THIS YEAR * BANK OF AMERICA...", "summary": "Sept 11 (Reuters) - Bank of America Corp:\n* BANK OF AMERICA PRESIDENT REGIONAL BANKING ATHANASIA SAYS\nON\nCOMMERCIAL SIDE, WE'VE ADDED OVER 1100 NEW CLIENTS THIS YEAR\n* BANK OF AMERICA PRESIDENT REGIONAL BANKING ATHANASIA SAYS\nOUR\nCLIENTS ARE STILL HOLDING VERSUS PRE PANDEMIC ABOUT 27% MORE\nCASH IN THEIR ACCOUNTS ON AVERAGE\n* BANK OF AMERICA PRESIDENT REGIONAL BANKING ATHANASIA SAYS\nCONSUMER SPENDING AT ABOUT A 5% CLIP\n* BANK OF AMERICA PRESIDENT REGIONAL BANKING ATHANASIA SAYS\nCREDIT\nQUALITY ON AVERAGE IS LOOKING REALLY GOOD\n* BANK OF AMERICA CFO SAYS LOAN GROWTH IS DEFINITELY SLOWER,\nESPECIALLY COMMERCIAL SIDE\n* BANK OF AMERICA CFO SAYS BIG TWO DRIVERS IN THE QUARTER\nWILL BE\nTHE MARKETS AND TRADING\n* BOFA CFO SAYS INVESTMENT BANKING FEE POOL IS DOWN PROBABLY\n30%\nTO 35%, PRETTY SIGNIFICANTLY DOWN YEAR-OVER-YEAR\n* BOFA CFO SAYS GLOBAL MARKETS' BUSINESS WILL BE UP VERSUS\nLAST\nYEAR AT LOW SINGLE DIGITS RATE\nFurther company coverage:\n(Reuters.Briefs@thomsonreuters.com)", "rights": "Copyright 2001 - 2023 Surperformance", "rank": 3681, "topic": "finance", "country": "US", "language": "en", "authors": "MarketScreener,Reuters", "media": "https://www.marketscreener.com/images/twitter_MS_fdblanc.png", "is_opinion": false, "twitter_account": null, "_score": 11.405317, "_id": "b06706b1e327f1147c59a5ac961f3497"}], "user_input": {"q": "Bank of America", "search_in": ["title_summary_en"], "lang": ["en"], "not_lang": null, "countries": ["US"], "not_countries": null, "from": "2023-09-07 00:00:00", "to": null, "ranked_only": "True", "from_rank": null, "to_rank": null, "sort_by": "relevancy", "page": 1, "size": 1, "sources": null, "not_sources": [], "topic": null, "published_date_precision": null}}