{"status": "ok", "total_hits": 8714, "page": 1, "total_pages": 8714, "page_size": 1, "articles": [{"title": "Goldman Sachs CEO Says 2024 Should Be A Better Year For Sure", "author": "", "published_date": "2023-09-12 19:18:30", "published_date_precision": "full", "link": "https://www.marketscreener.com/quote/stock/THE-GOLDMAN-SACHS-GROUP-I-12831/news/Goldman-Sachs-CEO-Says-2024-Should-Be-A-Better-Year-For-Sure-44826717/?utm_medium=RSS&utm_content=20230912", "clean_url": "marketscreener.com", "excerpt": null, "summary": "(marketscreener.com) Goldman Sachs Group Inc:\n * GOLDMAN SACHS CEO SAYS STILL AWAY FROM NORMALIZED\nENVIRONMENT\nFOR CAPITAL MARKETS, THINGS ARE IMPROVING\n * GOLDMAN SACHS CEO SAYS TRADING ACTIVITY IS RELATIVELY GOOD\n * GOLDMAN SACHS CEO SAYS ACTIVELY TRYING TO SELL ON-BALANCE\nSHEET\nASSETS\n * GOLDMAN SACHS CEO EXPECTS...\nhttps://www.marketscreener.com/quote/stock/THE-GOLDMAN-SACHS-GROUP-I-12831/news/Goldman-Sachs-CEO-Says-2024-Should-Be-A-Better-Year-For-Sure-44826717/?utm_medium=RSS&utm_content=20230912", "rights": "Copyright 2001 - 2023 Surperformance", "rank": 3681, "topic": "finance", "country": "US", "language": "en", "authors": "", "media": "", "is_opinion": false, "twitter_account": null, "_score": 22.521362, "_id": "d6e08a84647e3cf701ba28d51875bafc"}], "user_input": {"q": "Goldman Sachs", "search_in": ["title_summary_en"], "lang": ["en"], "not_lang": null, "countries": ["US"], "not_countries": null, "from": "2023-09-07 00:00:00", "to": null, "ranked_only": "True", "from_rank": null, "to_rank": null, "sort_by": "relevancy", "page": 1, "size": 1, "sources": null, "not_sources": [], "topic": null, "published_date_precision": null}}